[gd_scene load_steps=2 format=2]

[ext_resource path="res://assets/TileMaps/BallDestroyTileSet.tres" type="TileSet" id=1]

[node name="Node2D" type="Node2D"]

[node name="TileMap" type="TileMap" parent="." groups=["balldestroy"]]
modulate = Color( 1, 0, 0, 1 )
tile_set = ExtResource( 1 )
format = 1
