[gd_scene load_steps=2 format=2]

[ext_resource path="res://assets/LevelTemplate/LevelTemplate.tscn" type="PackedScene" id=1]

[node name="Node2D" type="Node2D"]

[node name="Node2D" parent="." instance=ExtResource( 1 )]

[node name="AnimatedSprite" parent="Node2D" index="0"]
frame = 0

[node name="ExitHole2dArea" parent="Node2D" index="1"]
position = Vector2( 929, 541 )

[node name="BallSpawner" parent="Node2D" index="2"]
position = Vector2( 113, 82 )

[node name="LineDrawer" parent="Node2D" index="3"]
line_colors = {
0: Color( 1, 0.211765, 0.211765, 1 ),
1: Color( 0.972549, 0.905882, 0.203922, 1 )
}

[node name="InkManager" parent="Node2D/LineDrawer" index="1"]
init_ink_dict = {
0: 250,
1: 100
}

[node name="TileMap" parent="Node2D/ObstacleTileMap" index="0"]
tile_data = PoolIntArray( 6, 0, 196608, 10, 0, 196608, 14, 0, 196608, 65540, 0, 196608, 65544, 0, 196608, 65548, 0, 196608, 131074, 0, 196608, 131078, 0, 196608, 131082, 0, 196608, 131086, 0, 196608, 196612, 0, 196608, 196616, 0, 196608, 196620, 0, 196608, 262146, 0, 196608, 262150, 0, 196608, 262154, 0, 196608, 262158, 0, 196608, 327684, 0, 196608, 327688, 0, 196608, 327692, 0, 196608, 393218, 0, 196608, 393222, 0, 196608, 393226, 0, 196608, 393230, 0, 196608, 458756, 0, 196608, 458760, 0, 196608, 458764, 0, 196608, 524290, 0, 196608, 524294, 0, 196608, 524298, 0, 196608 )

[editable path="Node2D"]
[editable path="Node2D/LineDrawer"]
[editable path="Node2D/ObstacleTileMap"]
[editable path="Node2D/DangerTileMap"]
