[gd_scene load_steps=2 format=2]

[ext_resource path="res://assets/LevelTemplate/LevelTemplate.tscn" type="PackedScene" id=1]

[node name="Node2D" type="Node2D"]

[node name="Node2D" parent="." instance=ExtResource( 1 )]

[node name="AnimatedSprite" parent="Node2D" index="0"]
frame = 1

[node name="ExitHole2dArea" parent="Node2D" index="1"]
position = Vector2( 154, 187 )

[node name="BallSpawner" parent="Node2D" index="2"]
position = Vector2( 518, 128 )
rotation = 0.313017

[node name="LineDrawer" parent="Node2D" index="3"]
line_colors = {
0: Color( 1, 0.211765, 0.211765, 1 ),
1: Color( 0.972549, 0.905882, 0.203922, 1 )
}

[node name="TileMap" parent="Node2D/ObstacleTileMap" index="0"]
tile_data = PoolIntArray( 524290, 0, 196609, 524291, 0, 196610, 524292, 0, 196610, 524293, 0, 196610, 524294, 0, 196610, 524295, 0, 196610, 524296, 0, 196610, 524297, 0, 196611 )

[node name="TileMap" parent="Node2D/DangerTileMap" index="0"]
tile_data = PoolIntArray( 5, 0, 0, 65541, 0, 65536, 131077, 0, 65536, 196613, 0, 65536, 262149, 0, 65536, 327684, 0, 196609, 327685, 0, 131074, 327686, 0, 196611 )

[editable path="Node2D"]
[editable path="Node2D/ObstacleTileMap"]
[editable path="Node2D/DangerTileMap"]
