[gd_resource type="DynamicFont" load_steps=2 format=2]

[ext_resource path="res://resources/fonts/PermanentMarker-Regular.ttf" type="DynamicFontData" id=1]

[resource]
size = 24
extra_spacing_bottom = -10
extra_spacing_space = 3
font_data = ExtResource( 1 )
