[gd_scene load_steps=8 format=2]

[ext_resource path="res://resources/sprites/VictoryTileMap.png" type="Texture" id=1]
[ext_resource path="res://scenes/_dario/AnimatedSprite.gd" type="Script" id=2]

[sub_resource type="AtlasTexture" id=1]
flags = 4
atlas = ExtResource( 1 )
region = Rect2( 0, 0, 512, 128 )

[sub_resource type="AtlasTexture" id=2]
flags = 4
atlas = ExtResource( 1 )
region = Rect2( 0, 128, 512, 128 )

[sub_resource type="AtlasTexture" id=3]
flags = 4
atlas = ExtResource( 1 )
region = Rect2( 0, 256, 512, 128 )

[sub_resource type="AtlasTexture" id=4]
flags = 4
atlas = ExtResource( 1 )
region = Rect2( 0, 384, 512, 128 )

[sub_resource type="SpriteFrames" id=5]
animations = [ {
"frames": [ SubResource( 1 ), SubResource( 2 ), SubResource( 3 ), SubResource( 4 ) ],
"loop": true,
"name": "default",
"speed": 5.0
} ]

[node name="AnimatedSprite" type="AnimatedSprite"]
position = Vector2( 290, 25 )
frames = SubResource( 5 )
frame = 2
playing = true
script = ExtResource( 2 )
