[gd_scene load_steps=3 format=2]

[ext_resource path="res://resources/sprites/Magnet.png" type="Texture" id=1]

[sub_resource type="CircleShape2D" id=1]
radius = 60.1171

[node name="Magnet" type="Sprite"]
scale = Vector2( 0.266667, 0.266667 )
texture = ExtResource( 1 )

[node name="StaticBody2D" type="StaticBody2D" parent="."]

[node name="CollisionShape2D" type="CollisionShape2D" parent="StaticBody2D"]
shape = SubResource( 1 )
